# Blender v2.80 (sub 75) OBJ File: 'sign.blend'
# www.blender.org
mtllib sign.mtl
o Cube_Cube.001
v -0.086750 -0.536482 1.583823
v -0.086750 0.536482 1.583823
v -0.086750 -0.536482 -1.583823
v -0.086750 0.536482 -1.583823
v 0.086750 -0.497141 1.544483
v 0.086750 0.497141 1.544483
v 0.086750 -0.497141 -1.544483
v 0.086750 0.497141 -1.544483
v 0.086750 0.536482 -1.583823
v 0.086750 -0.536482 -1.583823
v 0.086750 -0.536482 1.583823
v 0.086750 0.536482 1.583823
v 0.086750 0.536482 -1.583823
v 0.086750 -0.536482 -1.583823
v 0.086750 -0.536482 1.583823
v 0.086750 0.536482 1.583823
v 0.039537 -0.464275 1.511616
v 0.039537 0.464275 1.511616
v 0.039537 -0.464275 -1.511616
v 0.039537 0.464275 -1.511616
v 0.039537 0.497141 -1.544483
v 0.039537 -0.497141 -1.544483
v 0.039537 -0.497141 1.544483
v 0.039537 0.497141 1.544483
v 0.082524 -0.464275 1.511616
v 0.082524 0.464275 1.511616
v 0.082524 -0.464275 -1.511616
v 0.082524 0.464275 -1.511616
vt 0.165821 0.114667
vt 0.165751 0.000053
vt 0.292710 0.000053
vt 0.292710 0.114667
vt 0.375000 0.250000
vt 0.625000 0.250000
vt 0.625000 0.500000
vt 0.375000 0.500000
vt 0.614259 0.746690
vt 0.614259 0.990480
vt 0.614259 0.990480
vt 0.614259 0.746690
vt 0.375000 0.750000
vt 0.625000 0.750000
vt 0.625000 1.000000
vt 0.375000 1.000000
vt 0.125000 0.500000
vt 0.125000 0.750000
vt 0.875000 0.500000
vt 0.875000 0.750000
vt 0.625000 0.500000
vt 0.625000 0.500000
vt 0.625000 0.500000
vt 0.375000 0.500000
vt 0.375000 0.750000
vt 0.625000 0.750000
vt 0.375000 0.750000
vt 0.375000 0.750000
vt 0.165751 0.000053
vt 0.161730 0.961916
vt 0.161730 0.961916
vt 0.161730 0.961916
vt 0.161730 0.961916
vt 0.161730 0.961916
vt 0.156365 0.795421
vt 0.165642 0.789243
vt 0.161730 0.961916
vt 0.004356 0.994091
vt 0.004356 0.994091
vt 0.161730 0.961916
vt 0.498347 0.746690
vt 0.498347 0.746690
vt 0.161730 0.961916
vt 0.156365 0.795421
vt 0.384166 0.746895
vt 0.384166 0.503105
vt 0.384166 0.503105
vt 0.384166 0.746895
vt 0.606601 0.749283
vt 0.506005 0.749283
vt 0.391824 0.505699
vt 0.391824 0.744301
vt 0.606601 0.987886
vt 0.156365 0.795421
vt 0.996856 0.007424
vt 0.989708 0.983081
vt 0.006365 0.982087
vt 0.011730 0.008583
vt 0.002208 0.836414
vt 0.156365 0.795421
vt 0.002208 0.836414
vn -1.0000 0.0000 0.0000
vn 0.0000 0.0000 -1.0000
vn 0.0000 -1.0000 0.0000
vn 0.0000 0.0000 1.0000
vn 0.0000 1.0000 0.0000
vn 1.0000 0.0000 0.0000
usemtl Material.002
s off
f 1/1/1 2/2/1 4/3/1 3/4/1
f 3/5/2 4/6/2 9/7/2 10/8/2
f 8/9/3 6/10/3 24/11/3 21/12/3
f 11/13/4 12/14/4 2/15/4 1/16/4
f 3/17/3 10/8/3 11/13/3 1/18/3
f 9/7/5 4/19/5 2/20/5 12/14/5
f 13/21/4 14/22/4 10/23/4 9/7/4
f 14/24/4 15/25/4 11/13/4 10/8/4
f 16/26/4 13/21/4 9/7/4 12/14/4
f 15/25/4 16/27/4 12/28/4 11/13/4
f 8/29/6 7/30/6 14/31/6 13/32/6
f 7/30/6 5/33/6 15/34/6 14/31/6
f 6/35/6 8/29/6 13/32/6 16/36/6
f 5/33/6 6/35/6 16/36/6 15/34/6
f 17/37/3 19/38/3 27/39/3 25/40/3
f 7/41/4 8/9/4 21/12/4 22/42/4
f 6/35/2 5/33/2 23/43/2 24/44/2
f 5/45/5 7/46/5 22/47/5 23/48/5
f 20/49/6 19/50/6 22/42/6 21/12/6
f 19/51/6 17/52/6 23/48/6 22/47/6
f 18/53/6 20/49/6 21/12/6 24/11/6
f 17/37/6 18/54/6 24/44/6 23/43/6
f 27/55/6 28/56/6 26/57/6 25/58/6
f 20/59/5 18/54/5 26/60/5 28/61/5
f 19/38/2 20/59/2 28/61/2 27/39/2
f 18/54/4 17/37/4 25/40/4 26/60/4
